####
#
# OBJ File Generated by Meshlab
#
####
# Object Amygdala-resize-v2.obj
#
# Vertices: 119
# Faces: 230
#
####
mtllib ./Amygdala-resize-v2.obj.mtl

vn 1.398923 -2.542424 2.080484
v -24.844826 -15.512670 -21.123770 0.752941 0.752941 0.752941
vn -0.361322 -5.112294 0.248315
v -27.478701 -16.003626 -22.006857 0.752941 0.752941 0.752941
vn 2.354769 -5.460072 -0.228885
v -24.152620 -14.849078 -23.133429 0.752941 0.752941 0.752941
vn -1.773450 -1.858189 2.743758
v -28.743256 -15.382612 -21.210278 0.752941 0.752941 0.752941
vn -3.560583 -3.231956 1.040227
v -31.039848 -14.182099 -23.741739 0.752941 0.752941 0.752941
vn 1.804143 -1.396486 4.709155
v -23.284822 -13.159186 -21.221806 0.752941 0.752941 0.752941
vn -0.632793 0.731032 5.952342
v -26.403341 -13.813393 -20.973745 0.752941 0.752941 0.752941
vn -0.709728 -5.913161 -1.719557
v -28.121256 -14.784104 -24.973524 0.752941 0.752941 0.752941
vn -4.461315 0.375604 3.674743
v -31.252457 -12.528817 -23.516556 0.752941 0.752941 0.752941
vn -1.960440 -5.773825 -1.162206
v -31.473961 -13.153965 -27.930250 0.752941 0.752941 0.752941
vn -0.062144 -5.622035 -2.309779
v -26.707214 -13.992778 -28.444521 0.752941 0.752941 0.752941
vn 1.205503 -5.634071 -1.790286
v -23.294859 -14.043489 -27.422737 0.752941 0.752941 0.752941
vn -4.521721 -2.875100 1.142806
v -32.644371 -12.609818 -26.715145 0.752941 0.752941 0.752941
vn 2.285393 -5.056579 2.061057
v -20.961632 -13.403503 -23.406651 0.752941 0.752941 0.752941
vn 1.342763 -0.320004 5.312274
v -20.807228 -11.224198 -21.642117 0.752941 0.752941 0.752941
vn 3.251680 -3.092928 2.274868
v -17.280447 -12.522085 -25.452778 0.752941 0.752941 0.752941
vn 2.621344 -0.621865 2.969876
v -18.405220 -11.388277 -22.298424 0.752941 0.752941 0.752941
vn 1.484914 -5.729429 -1.386533
v -19.347195 -13.082490 -26.852558 0.752941 0.752941 0.752941
vn 2.365791 -1.390182 0.099625
v -16.355350 -12.591670 -26.501869 0.752941 0.752941 0.752941
vn 2.109750 -4.972753 -3.120574
v -18.367851 -11.679279 -28.781458 0.752941 0.752941 0.752941
vn 0.549919 -5.857813 -1.800591
v -24.446373 -12.001804 -31.270359 0.752941 0.752941 0.752941
vn -0.153660 -6.076866 -1.046715
v -30.187944 -12.640429 -30.503727 0.752941 0.752941 0.752941
vn -3.291210 -4.909481 0.079463
v -33.352371 -12.252275 -29.980839 0.752941 0.752941 0.752941
vn -1.297612 -4.247100 -1.380630
v -32.142242 -13.183296 -34.864845 0.752941 0.752941 0.752941
vn -5.325090 -1.736823 0.206316
v -34.181767 -11.310233 -30.640833 0.752941 0.752941 0.752941
vn -0.022649 -5.212893 -2.425309
v -28.265438 -12.052537 -36.598755 0.752941 0.752941 0.752941
vn -4.313975 -1.287037 -2.102305
v -33.674236 -11.506218 -34.929401 0.752941 0.752941 0.752941
vn -2.174951 -0.227307 -3.846958
v -32.040001 -10.969264 -36.863178 0.752941 0.752941 0.752941
vn -0.328292 2.991874 4.861202
v -24.917778 -8.933284 -22.063696 0.752941 0.752941 0.752941
vn -3.016793 2.573839 4.252567
v -30.037872 -9.359356 -23.617140 0.752941 0.752941 0.752941
vn -5.063027 1.040177 3.391726
v -32.365894 -10.679443 -26.021948 0.752941 0.752941 0.752941
vn -4.910058 0.890710 2.195902
v -33.858608 -9.674709 -28.098736 0.752941 0.752941 0.752941
vn 0.584057 -6.105088 -0.323132
v -26.783089 -11.701094 -33.345493 0.752941 0.752941 0.752941
vn 0.916093 -4.512661 -2.524197
v -23.838835 -11.863558 -37.620213 0.752941 0.752941 0.752941
vn 1.977792 -5.025945 -1.388747
v -20.614550 -11.765387 -34.548611 0.752941 0.752941 0.752941
vn 3.350183 -1.028491 -4.506746
v -20.565809 -10.044156 -36.215355 0.752941 0.752941 0.752941
vn 1.228695 -1.091425 -4.214231
v -23.603508 -10.815654 -38.533184 0.752941 0.752941 0.752941
vn -1.191257 -1.103469 -5.147799
v -28.453053 -10.847953 -37.683254 0.752941 0.752941 0.752941
vn 4.166860 3.344742 1.826716
v -18.175701 -9.260545 -24.685747 0.752941 0.752941 0.752941
vn 5.196554 -2.276554 -1.978282
v -17.881664 -10.322469 -30.067244 0.752941 0.752941 0.752941
vn 2.411884 -5.594573 -0.893133
v -19.382921 -11.288718 -31.070633 0.752941 0.752941 0.752941
vn 3.818929 -3.388347 -2.262815
v -19.199808 -10.812749 -34.523159 0.752941 0.752941 0.752941
vn -5.237171 1.413244 -1.580205
v -34.013203 -9.090433 -33.156761 0.752941 0.752941 0.752941
vn 2.044387 3.559235 3.668042
v -19.876392 -9.136359 -22.672293 0.752941 0.752941 0.752941
vn 5.942858 1.326005 -0.380359
v -17.711758 -9.098622 -29.643171 0.752941 0.752941 0.752941
vn 3.358815 1.090208 -2.123914
v -18.247498 -8.667029 -34.632507 0.752941 0.752941 0.752941
vn 0.688461 2.347082 -4.857095
v -24.180941 -8.569457 -38.098499 0.752941 0.752941 0.752941
vn -2.382345 2.913051 -4.870481
v -30.984465 -9.705588 -36.554577 0.752941 0.752941 0.752941
vn -3.499489 3.563483 1.497711
v -32.899693 -6.562042 -29.247068 0.752941 0.752941 0.752941
vn 3.447446 3.880663 -0.049555
v -18.427361 -7.074816 -30.731815 0.752941 0.752941 0.752941
vn 2.933173 3.337940 -4.009689
v -21.159372 -7.897523 -35.874622 0.752941 0.752941 0.752941
vn -1.133208 4.648733 3.295983
v -27.473547 -7.100285 -24.293127 0.752941 0.752941 0.752941
vn -2.958794 3.426091 -1.574376
v -32.807522 -6.246346 -33.105026 0.752941 0.752941 0.752941
vn -1.264454 4.313224 -3.702251
v -27.627064 -6.350271 -35.814747 0.752941 0.752941 0.752941
vn 1.122181 5.364712 2.369890
v -22.947218 -6.974920 -24.805075 0.752941 0.752941 0.752941
vn 1.722826 4.928753 -2.314466
v -22.981426 -6.078084 -35.140152 0.752941 0.752941 0.752941
vn 0.116779 5.104051 -2.684238
v -25.366674 -5.933939 -35.627262 0.752941 0.752941 0.752941
vn 0.100840 6.016496 1.410459
v -26.261597 -6.022239 -27.229319 0.752941 0.752941 0.752941
vn -1.115004 5.892689 0.791802
v -30.876965 -5.681373 -30.229368 0.752941 0.752941 0.752941
vn 0.751479 6.081418 0.033264
v -24.216124 -5.529349 -32.148842 0.752941 0.752941 0.752941
vn -0.723249 6.041766 -1.028464
v -30.226547 -5.721905 -32.857681 0.752941 0.752941 0.752941
vn 2.015328 -5.235857 0.511764
v 27.476084 -14.051423 -25.560106 0.752941 0.752941 0.752941
vn 1.481513 -0.631972 4.334167
v 25.010059 -12.974623 -21.805336 0.752941 0.752941 0.752941
vn 0.280098 -3.598049 2.132999
v 24.042757 -14.847560 -22.673975 0.752941 0.752941 0.752941
vn -1.458980 -2.958404 5.054948
v 21.640783 -13.584188 -22.708061 0.752941 0.752941 0.752941
vn 3.716835 -1.670028 2.815183
v 28.455360 -13.085933 -24.851011 0.752941 0.752941 0.752941
vn -2.088177 -5.294493 1.198140
v 20.060282 -13.902847 -23.920341 0.752941 0.752941 0.752941
vn 4.077718 -2.607634 1.050676
v 29.220045 -13.011816 -26.518764 0.752941 0.752941 0.752941
vn -1.639201 -5.698245 -1.320769
v 20.529203 -13.792135 -27.074974 0.752941 0.752941 0.752941
vn -0.250289 -5.839726 -1.900000
v 23.477934 -13.788338 -28.447598 0.752941 0.752941 0.752941
vn -0.475701 0.222787 6.165050
v 21.740269 -11.654461 -22.301514 0.752941 0.752941 0.752941
vn -2.106857 -1.111984 2.861772
v 17.742258 -12.075500 -22.365505 0.752941 0.752941 0.752941
vn 1.465963 -5.802397 -1.476081
v 28.500237 -12.706406 -30.212194 0.752941 0.752941 0.752941
vn -1.201248 -5.962846 -1.122197
v 19.452303 -11.509127 -31.724705 0.752941 0.752941 0.752941
vn 0.076233 -6.073072 -1.402871
v 25.743761 -11.880102 -32.969387 0.752941 0.752941 0.752941
vn 3.023254 2.208176 4.642510
v 26.422224 -9.980649 -23.761711 0.752941 0.752941 0.752941
vn -4.952321 1.509143 1.813068
v 16.304176 -10.059345 -25.192392 0.752941 0.752941 0.752941
vn -4.412261 -2.609373 0.345618
v 16.164244 -11.671175 -26.320232 0.752941 0.752941 0.752941
vn -3.716674 -4.400107 -1.198201
v 16.597006 -11.743077 -28.107349 0.752941 0.752941 0.752941
vn 4.324838 -3.207780 0.321130
v 30.626297 -11.810127 -29.721970 0.752941 0.752941 0.752941
vn 2.055377 -5.747539 -0.550569
v 30.405178 -11.316461 -34.015545 0.752941 0.752941 0.752941
vn 5.306613 -2.619088 0.399356
v 31.057158 -10.812622 -33.052956 0.752941 0.752941 0.752941
vn -2.829170 -5.512568 -0.087186
v 17.165493 -10.857989 -32.743042 0.752941 0.752941 0.752941
vn -1.281647 -5.678162 -0.665997
v 19.701494 -11.848104 -35.762688 0.752941 0.752941 0.752941
vn -0.425661 3.062335 4.791103
v 20.727907 -8.263672 -23.080957 0.752941 0.752941 0.752941
vn 4.529682 2.566538 2.780714
v 29.504801 -7.099980 -28.502800 0.752941 0.752941 0.752941
vn 5.544196 0.131066 1.832936
v 30.936728 -10.267718 -29.633366 0.752941 0.752941 0.752941
vn -5.530304 -0.320807 0.125276
v 15.933672 -9.701105 -30.309240 0.752941 0.752941 0.752941
vn 3.209141 -1.582576 -0.867850
v 31.847214 -10.692417 -35.849567 0.752941 0.752941 0.752941
vn 0.484522 -5.992872 -1.243658
v 24.273996 -11.688544 -36.469563 0.752941 0.752941 0.752941
vn -3.591449 -3.148981 -1.444017
v 16.490133 -10.631709 -34.884468 0.752941 0.752941 0.752941
vn 0.831338 -5.737160 -1.870009
v 29.030087 -11.225941 -36.588047 0.752941 0.752941 0.752941
vn -4.360460 -3.318573 -2.581157
v 18.515688 -10.584999 -36.824032 0.752941 0.752941 0.752941
vn 1.975227 -1.788031 -3.495943
v 30.384357 -10.346825 -37.829727 0.752941 0.752941 0.752941
vn 0.696927 -2.059670 -3.164824
v 21.427011 -10.865096 -40.833801 0.752941 0.752941 0.752941
vn 1.727039 -3.814420 -4.246074
v 25.113132 -10.636238 -38.181335 0.752941 0.752941 0.752941
vn -2.022669 -0.887619 -2.295409
v 19.402401 -10.384420 -40.794182 0.752941 0.752941 0.752941
vn 2.579487 1.318869 -5.027072
v 24.076490 -9.315682 -39.201759 0.752941 0.752941 0.752941
vn -2.975534 3.318068 3.370705
v 18.114019 -8.751803 -23.738064 0.752941 0.752941 0.752941
vn 5.496002 1.871217 0.784076
v 31.144323 -7.806770 -32.297825 0.752941 0.752941 0.752941
vn -3.868825 0.870794 -2.051055
v 16.086742 -8.950092 -35.295635 0.752941 0.752941 0.752941
vn 2.719100 2.035087 -3.652225
v 30.362555 -8.699720 -37.638412 0.752941 0.752941 0.752941
vn -4.679519 1.330190 -3.519901
v 18.364902 -8.981348 -37.181412 0.752941 0.752941 0.752941
vn 1.120432 0.777939 -5.934542
v 26.026581 -9.068666 -38.349049 0.752941 0.752941 0.752941
vn -3.498739 4.675675 0.938165
v 17.674646 -6.545451 -30.440269 0.752941 0.752941 0.752941
vn -4.593793 2.505179 1.041818
v 16.134272 -7.943124 -31.193323 0.752941 0.752941 0.752941
vn -0.840313 2.428012 -3.753784
v 20.317242 -9.200820 -40.795639 0.752941 0.752941 0.752941
vn 0.830303 4.546716 2.778631
v 24.992666 -5.257868 -26.216526 0.752941 0.752941 0.752941
vn 3.449687 3.777817 -1.283914
v 30.354069 -6.267795 -34.352448 0.752941 0.752941 0.752941
vn -2.263254 4.711272 -2.782695
v 19.908142 -7.142685 -37.211430 0.752941 0.752941 0.752941
vn 0.631809 4.212511 -4.510297
v 23.320232 -7.601950 -38.146305 0.752941 0.752941 0.752941
vn -1.497291 5.034201 2.689544
v 21.277241 -6.267346 -25.269356 0.752941 0.752941 0.752941
vn 2.940067 3.830283 3.450181
v 26.845289 -5.906236 -26.698290 0.752941 0.752941 0.752941
vn 2.578062 4.745907 0.843639
v 28.767372 -5.239554 -30.290609 0.752941 0.752941 0.752941
vn -2.750985 5.158632 -0.788907
v 18.206060 -6.162579 -32.402924 0.752941 0.752941 0.752941
vn 1.485746 5.542961 -1.667750
v 28.360987 -5.510049 -34.302460 0.752941 0.752941 0.752941
vn 0.211588 4.843940 -1.896688
v 24.966484 -5.102952 -35.854584 0.752941 0.752941 0.752941
vn -0.781655 5.939195 0.420694
v 23.007671 -4.778925 -29.301790 0.752941 0.752941 0.752941
vn -0.976718 6.035485 -0.894351
v 23.245741 -5.288861 -34.444069 0.752941 0.752941 0.752941
# 119 vertices, 0 vertices normals


usemtl material_0
f 1//1 2//2 3//3
f 1//1 4//4 2//2
f 5//5 2//2 4//4
f 1//1 3//3 6//6
f 1//1 7//7 4//4
f 2//2 5//5 8//8
f 2//2 8//8 3//3
f 1//1 6//6 7//7
f 4//4 9//9 5//5
f 8//8 5//5 10//10
f 11//11 12//12 3//3
f 3//3 8//8 11//11
f 10//10 5//5 13//13
f 10//10 11//11 8//8
f 6//6 14//14 15//15
f 14//14 6//6 3//3
f 16//16 17//17 14//14
f 13//13 5//5 9//9
f 18//18 19//19 16//16
f 16//16 14//14 18//18
f 14//14 3//3 12//12
f 14//14 12//12 18//18
f 19//19 18//18 20//20
f 20//20 18//18 12//12
f 12//12 11//11 21//21
f 11//11 10//10 22//22
f 23//23 10//10 13//13
f 12//12 21//21 20//20
f 11//11 22//22 21//21
f 23//23 24//24 22//22
f 24//24 23//23 25//25
f 26//26 22//22 24//24
f 27//27 28//28 24//24
f 28//28 26//26 24//24
f 6//6 29//29 7//7
f 17//17 15//15 14//14
f 7//7 30//30 4//4
f 4//4 30//30 9//9
f 31//31 13//13 9//9
f 13//13 31//31 32//32
f 13//13 25//25 23//23
f 23//23 22//22 10//10
f 26//26 33//33 22//22
f 25//25 27//27 24//24
f 26//26 34//34 35//35
f 35//35 33//33 26//26
f 35//35 34//34 36//36
f 37//37 36//36 34//34
f 38//38 34//34 26//26
f 26//26 28//28 38//38
f 34//34 38//38 37//37
f 29//29 6//6 15//15
f 16//16 39//39 17//17
f 7//7 29//29 30//30
f 31//31 9//9 30//30
f 39//39 16//16 19//19
f 13//13 32//32 25//25
f 19//19 20//20 40//40
f 20//20 41//41 40//40
f 21//21 41//41 20//20
f 21//21 22//22 33//33
f 41//41 42//42 40//40
f 41//41 21//21 35//35
f 21//21 33//33 35//35
f 35//35 42//42 41//41
f 25//25 43//43 27//27
f 42//42 35//35 36//36
f 17//17 39//39 44//44
f 19//19 45//45 39//39
f 19//19 40//40 45//45
f 25//25 32//32 43//43
f 46//46 45//45 40//40
f 40//40 42//42 46//46
f 28//28 27//27 43//43
f 42//42 36//36 46//46
f 47//47 36//36 37//37
f 28//28 48//48 38//38
f 17//17 44//44 15//15
f 29//29 15//15 44//44
f 49//49 31//31 30//30
f 31//31 49//49 32//32
f 39//39 45//45 50//50
f 28//28 43//43 48//48
f 36//36 47//47 51//51
f 47//47 37//37 38//38
f 47//47 38//38 48//48
f 52//52 30//30 29//29
f 49//49 43//43 32//32
f 49//49 53//53 43//43
f 45//45 46//46 50//50
f 53//53 48//48 43//43
f 36//36 51//51 46//46
f 47//47 48//48 54//54
f 44//44 55//55 29//29
f 52//52 29//29 55//55
f 44//44 39//39 55//55
f 49//49 30//30 52//52
f 39//39 50//50 55//55
f 50//50 46//46 51//51
f 50//50 51//51 56//56
f 53//53 54//54 48//48
f 51//51 47//47 56//56
f 47//47 57//57 56//56
f 47//47 54//54 57//57
f 55//55 58//58 52//52
f 52//52 58//58 59//59
f 60//60 55//55 50//50
f 52//52 59//59 49//49
f 58//58 55//55 60//60
f 56//56 60//60 50//50
f 58//58 60//60 59//59
f 59//59 53//53 49//49
f 61//61 59//59 60//60
f 59//59 61//61 53//53
f 60//60 56//56 57//57
f 60//60 57//57 61//61
f 61//61 57//57 54//54
f 61//61 54//54 53//53
f 62//62 63//63 64//64
f 64//64 63//63 65//65
f 62//62 66//66 63//63
f 67//67 64//64 65//65
f 66//66 62//62 68//68
f 64//64 67//67 69//69
f 62//62 64//64 70//70
f 64//64 69//69 70//70
f 71//71 65//65 63//63
f 65//65 72//72 67//67
f 68//68 62//62 73//73
f 62//62 70//70 73//73
f 69//69 74//74 70//70
f 74//74 75//75 70//70
f 71//71 72//72 65//65
f 63//63 66//66 76//76
f 77//77 78//78 72//72
f 78//78 67//67 72//72
f 67//67 78//78 69//69
f 69//69 78//78 79//79
f 80//80 68//68 73//73
f 79//79 74//74 69//69
f 81//81 80//80 73//73
f 73//73 70//70 75//75
f 80//80 81//81 82//82
f 73//73 75//75 81//81
f 83//83 84//84 74//74
f 63//63 85//85 71//71
f 86//86 66//66 68//68
f 68//68 80//80 87//87
f 68//68 87//87 86//86
f 88//88 79//79 78//78
f 80//80 82//82 87//87
f 74//74 79//79 83//83
f 79//79 88//88 83//83
f 89//89 82//82 81//81
f 74//74 90//90 75//75
f 83//83 88//88 91//91
f 81//81 75//75 92//92
f 90//90 74//74 84//84
f 83//83 91//91 84//84
f 92//92 89//89 81//81
f 75//75 90//90 92//92
f 84//84 91//91 93//93
f 89//89 92//92 94//94
f 95//95 90//90 84//84
f 92//92 96//96 94//94
f 92//92 90//90 96//96
f 95//95 96//96 90//90
f 84//84 93//93 97//97
f 96//96 95//95 98//98
f 95//95 84//84 97//97
f 71//71 85//85 72//72
f 72//72 85//85 99//99
f 77//77 72//72 99//99
f 77//77 88//88 78//78
f 87//87 82//82 100//100
f 89//89 100//100 82//82
f 88//88 101//101 91//91
f 89//89 94//94 102//102
f 93//93 91//91 103//103
f 91//91 101//101 103//103
f 104//104 94//94 96//96
f 96//96 98//98 104//104
f 93//93 103//103 97//97
f 63//63 76//76 85//85
f 86//86 76//76 66//66
f 77//77 105//105 88//88
f 106//106 88//88 105//105
f 88//88 106//106 101//101
f 94//94 104//104 102//102
f 103//103 107//107 97//97
f 98//98 95//95 107//107
f 95//95 97//97 107//107
f 76//76 108//108 85//85
f 77//77 99//99 105//105
f 87//87 100//100 86//86
f 102//102 109//109 89//89
f 101//101 110//110 103//103
f 102//102 104//104 111//111
f 104//104 98//98 111//111
f 98//98 107//107 111//111
f 107//107 110//110 111//111
f 107//107 103//103 110//110
f 85//85 112//112 99//99
f 108//108 112//112 85//85
f 76//76 113//113 108//108
f 86//86 113//113 76//76
f 112//112 105//105 99//99
f 86//86 100//100 114//114
f 109//109 100//100 89//89
f 101//101 106//106 115//115
f 115//115 110//110 101//101
f 109//109 102//102 116//116
f 116//116 102//102 117//117
f 102//102 111//111 117//117
f 105//105 112//112 118//118
f 105//105 115//115 106//106
f 109//109 114//114 100//100
f 115//115 119//119 110//110
f 117//117 111//111 110//110
f 108//108 118//118 112//112
f 86//86 114//114 113//113
f 113//113 114//114 108//108
f 118//118 115//115 105//105
f 114//114 109//109 116//116
f 116//116 119//119 118//118
f 116//116 118//118 114//114
f 119//119 115//115 118//118
f 116//116 117//117 119//119
f 117//117 110//110 119//119
f 114//114 118//118 108//108
# 230 faces, 0 coords texture

# End of File
