####
#
# OBJ File Generated by Meshlab
#
####
# Object CC_Mid_Posterior-resize.obj
#
# Vertices: 29
# Faces: 54
#
####
vn 3.952049 -1.385212 -3.351300
v 0.472466 -20.217201 3.363405 0.752941 0.752941 0.752941
vn 1.779127 -3.719887 2.402712
v 0.082395 -19.813339 8.973834 0.752941 0.752941 0.752941
vn 2.744755 -3.105941 -0.611731
v 0.568643 -20.809395 3.990703 0.752941 0.752941 0.752941
vn -2.464482 -4.104527 1.943601
v -2.146374 -19.939148 8.278175 0.752941 0.752941 0.752941
vn -1.229319 -3.861373 -0.502827
v -2.505454 -21.270842 2.294561 0.752941 0.752941 0.752941
vn -0.675249 -0.609685 -1.320803
v -2.840125 -20.870995 1.215360 0.752941 0.752941 0.752941
vn -1.710593 0.928336 -3.605510
v -2.154410 -18.224434 2.059138 0.752941 0.752941 0.752941
vn -5.636896 -1.286622 0.485904
v -3.264900 -18.443733 7.256925 0.752941 0.752941 0.752941
vn 2.699798 -1.022660 3.343376
v 0.634962 -18.452282 9.735742 0.752941 0.752941 0.752941
vn -1.950198 -1.643762 3.803786
v -2.193424 -18.473148 9.941536 0.752941 0.752941 0.752941
vn 5.599322 -1.163100 0.818781
v 1.386365 -18.231588 7.501978 0.752941 0.752941 0.752941
vn 4.750295 -0.867213 -3.256222
v 0.810750 -16.589592 3.394963 0.752941 0.752941 0.752941
vn -6.054089 0.346379 -1.211436
v -3.126235 -16.011553 6.702770 0.752941 0.752941 0.752941
vn -0.918780 -0.374895 -3.811124
v -0.952961 -15.458286 1.870522 0.752941 0.752941 0.752941
vn 5.537701 -0.539876 -1.779589
v 1.364283 -12.996490 3.228424 0.752941 0.752941 0.752941
vn 4.096706 0.503994 4.426031
v 0.391515 -14.817311 9.163595 0.752941 0.752941 0.752941
vn -5.075497 -0.470662 2.381812
v -3.152473 -16.852100 9.160669 0.752941 0.752941 0.752941
vn -5.632602 0.540968 -2.651146
v -1.667987 -12.589357 4.319545 0.752941 0.752941 0.752941
vn 0.010410 0.346968 -1.046085
v 0.020272 -10.473039 -0.629701 0.752941 0.752941 0.752941
vn -1.966737 1.023426 3.955774
v -2.643039 -9.413880 9.705040 0.752941 0.752941 0.752941
vn 5.805389 1.073082 0.586025
v 1.263934 -9.103693 7.365117 0.752941 0.752941 0.752941
vn -5.612187 0.861209 0.666338
v -3.319124 -9.502378 8.306886 0.752941 0.752941 0.752941
vn 3.291239 0.904302 3.920433
v 0.661262 -8.370088 8.876111 0.752941 0.752941 0.752941
vn -3.810472 2.547906 -2.054991
v -2.745319 -8.089083 6.370587 0.752941 0.752941 0.752941
vn -0.921094 3.518597 -2.312974
v -0.267371 -8.855460 3.048961 0.752941 0.752941 0.752941
vn 4.810833 2.698210 -1.402694
v 0.957210 -9.533748 3.469777 0.752941 0.752941 0.752941
vn 1.773683 2.594143 1.341259
v 0.564813 -7.168828 8.506101 0.752941 0.752941 0.752941
vn -1.725945 3.069450 1.003478
v -2.407765 -7.051899 8.283079 0.752941 0.752941 0.752941
vn 0.845088 5.230187 -2.123744
v -0.369308 -7.814693 5.373260 0.752941 0.752941 0.752941
# 29 vertices, 0 vertices normals

f 3//3 4//4 5//5
f 3//3 5//5 1//1
f 6//6 1//1 5//5
f 2//2 11//11 9//9
f 10//10 4//4 2//2
f 4//4 10//10 8//8
f 2//2 3//3 11//11
f 4//4 8//8 5//5
f 2//2 4//4 3//3
f 5//5 8//8 6//6
f 9//9 10//10 2//2
f 10//10 17//17 8//8
f 3//3 1//1 12//12
f 6//6 8//8 7//7
f 7//7 1//1 6//6
f 12//12 11//11 3//3
f 13//13 7//7 8//8
f 1//1 7//7 12//12
f 13//13 8//8 17//17
f 9//9 16//16 20//20
f 9//9 20//20 10//10
f 16//16 9//9 11//11
f 15//15 11//11 12//12
f 13//13 14//14 7//7
f 14//14 15//15 12//12
f 12//12 7//7 14//14
f 10//10 20//20 17//17
f 13//13 18//18 14//14
f 15//15 14//14 19//19
f 19//19 14//14 18//18
f 17//17 22//22 13//13
f 22//22 17//17 20//20
f 23//23 16//16 11//11
f 16//16 23//23 20//20
f 11//11 21//21 23//23
f 21//21 11//11 15//15
f 22//22 24//24 13//13
f 18//18 13//13 24//24
f 25//25 18//18 24//24
f 18//18 25//25 19//19
f 19//19 26//26 15//15
f 15//15 26//26 21//21
f 23//23 27//27 20//20
f 26//26 19//19 25//25
f 20//20 28//28 22//22
f 28//28 20//20 27//27
f 23//23 21//21 27//27
f 22//22 28//28 24//24
f 21//21 26//26 27//27
f 25//25 24//24 29//29
f 26//26 25//25 29//29
f 29//29 27//27 26//26
f 24//24 28//28 29//29
f 29//29 28//28 27//27
# 54 faces, 0 coords texture

# End of File
