####
#
# OBJ File Generated by Meshlab
#
####
# Object Thalamus-Proper-resize-v2.obj
#
# Vertices: 360
# Faces: 712
#
####
mtllib ./Thalamus-Proper-resize-v2.obj.mtl

vn 1.739475 -4.790312 1.953070
v 20.967829 -32.867573 -7.661333 0.752941 0.752941 0.752941
vn -0.099262 -5.194317 2.934432
v 15.660266 -32.772930 -6.782488 0.752941 0.752941 0.752941
vn 0.368906 -5.904278 0.157537
v 18.768568 -33.289600 -8.522971 0.752941 0.752941 0.752941
vn -0.434431 -5.705780 -0.871428
v 14.385080 -33.266811 -9.370406 0.752941 0.752941 0.752941
vn -1.987303 -4.454554 2.224975
v 10.553287 -32.270374 -6.736418 0.752941 0.752941 0.752941
vn -1.944507 -4.754654 -1.853094
v 11.485036 -32.718174 -9.776837 0.752941 0.752941 0.752941
vn -3.875722 -4.182360 1.159304
v 9.204641 -31.474773 -7.471317 0.752941 0.752941 0.752941
vn 1.787269 -5.432201 -1.080435
v 21.718271 -32.584980 -10.222454 0.752941 0.752941 0.752941
vn -1.664172 -4.019914 4.348813
v 11.652284 -30.389647 -4.673218 0.752941 0.752941 0.752941
vn 0.462477 -4.637827 4.195263
v 16.574867 -30.421230 -4.439377 0.752941 0.752941 0.752941
vn 1.505289 -4.541790 4.028877
v 21.494980 -31.233555 -6.285379 0.752941 0.752941 0.752941
vn -3.807184 -3.078697 -1.942773
v 8.113305 -30.412111 -9.534740 0.752941 0.752941 0.752941
vn 4.306447 -2.551814 -0.692139
v 24.872152 -30.575802 -11.203313 0.752941 0.752941 0.752941
vn -0.877047 -4.680873 -3.764978
v 16.563982 -31.097712 -13.480556 0.752941 0.752941 0.752941
vn -3.267950 -2.115151 -4.748677
v 9.671433 -29.655993 -11.038320 0.752941 0.752941 0.752941
vn 2.834136 -1.783224 -2.936321
v 23.801304 -30.491842 -13.604750 0.752941 0.752941 0.752941
vn 0.751102 -4.627965 -3.605564
v 21.491688 -31.054306 -13.793346 0.752941 0.752941 0.752941
vn -1.981783 -1.055610 -4.711460
v 12.609222 -29.504671 -13.444179 0.752941 0.752941 0.752941
vn -0.506633 -3.289118 -4.669237
v 17.960497 -30.482994 -14.526700 0.752941 0.752941 0.752941
vn -1.179932 0.187186 -4.855067
v 16.432800 -29.467585 -14.658924 0.752941 0.752941 0.752941
vn -0.070492 -4.623989 3.956605
v 14.710646 -29.632401 -3.089984 0.752941 0.752941 0.752941
vn 2.016346 -3.744858 3.896671
v 22.418434 -29.706123 -4.333445 0.752941 0.752941 0.752941
vn 4.282782 -2.218190 1.940165
v 24.790209 -28.968803 -5.587468 0.752941 0.752941 0.752941
vn -3.747983 -3.767497 3.048385
v 7.190436 -26.994900 -4.891467 0.752941 0.752941 0.752941
vn 0.822632 0.358902 -4.538130
v 21.164814 -29.561216 -14.906466 0.752941 0.752941 0.752941
vn 2.786121 2.463305 -4.201323
v 23.134655 -28.930964 -13.786184 0.752941 0.752941 0.752941
vn -1.679763 -3.735278 4.599638
v 12.956302 -28.414696 -2.318514 0.752941 0.752941 0.752941
vn 4.316033 -0.619626 3.024575
v 24.630404 -27.744200 -4.689501 0.752941 0.752941 0.752941
vn 5.081981 1.273756 -1.717965
v 24.989408 -28.698563 -11.189268 0.752941 0.752941 0.752941
vn -4.005660 -2.158265 -4.107051
v 7.032966 -27.295073 -9.914183 0.752941 0.752941 0.752941
vn -2.729250 -0.066250 -5.536217
v 11.267074 -27.234602 -12.410522 0.752941 0.752941 0.752941
vn 1.641962 -4.302910 4.168926
v 19.477951 -26.592529 -1.062037 0.752941 0.752941 0.752941
vn -0.515063 -4.519469 4.239977
v 16.095144 -25.936884 0.111428 0.752941 0.752941 0.752941
vn 3.412156 -1.913024 4.746027
v 21.251431 -27.296770 -2.794981 0.752941 0.752941 0.752941
vn -4.642918 -3.798843 -0.615631
v 5.775796 -26.647367 -8.308707 0.752941 0.752941 0.752941
vn 5.900088 1.131730 0.255136
v 24.930094 -26.997160 -6.575408 0.752941 0.752941 0.752941
vn -2.636584 -1.682557 -5.267874
v 10.491394 -26.336744 -11.978465 0.752941 0.752941 0.752941
vn 0.167404 2.928614 -5.498484
v 17.524694 -27.088192 -13.177843 0.752941 0.752941 0.752941
vn -2.014172 -3.925219 4.447125
v 12.511390 -23.955942 0.574905 0.752941 0.752941 0.752941
vn -2.376765 -3.763193 4.416360
v 10.345207 -25.914156 -1.981588 0.752941 0.752941 0.752941
vn 5.459920 1.899123 -2.160770
v 23.726206 -25.390203 -9.652730 0.752941 0.752941 0.752941
vn 2.907786 3.045403 -4.454640
v 22.724203 -26.569574 -11.710597 0.752941 0.752941 0.752941
vn 0.979700 -0.234550 -5.764783
v 17.741144 -25.198784 -12.375419 0.752941 0.752941 0.752941
vn 0.031833 0.077470 -6.147544
v 14.776131 -25.992186 -12.792506 0.752941 0.752941 0.752941
vn 4.404068 -2.061644 3.619506
v 22.948242 -25.652952 -2.932079 0.752941 0.752941 0.752941
vn 5.970234 0.661835 1.526981
v 23.679108 -24.583069 -4.269025 0.752941 0.752941 0.752941
vn -2.731856 -3.957945 -3.937815
v 6.212286 -25.312450 -10.478441 0.752941 0.752941 0.752941
vn 3.329252 0.714523 -4.979553
v 22.342154 -25.024904 -11.390999 0.752941 0.752941 0.752941
vn -0.559865 -1.485903 -5.986547
v 12.168146 -25.095383 -13.058927 0.752941 0.752941 0.752941
vn -0.574823 -4.241315 4.028842
v 16.427349 -24.319988 2.512940 0.752941 0.752941 0.752941
vn 1.443645 -2.160007 4.794178
v 17.829744 -22.667118 3.829659 0.752941 0.752941 0.752941
vn 3.313611 -2.860394 3.622425
v 21.822786 -24.436745 0.257541 0.752941 0.752941 0.752941
vn 5.239077 -0.727951 2.352181
v 23.126942 -23.111803 -0.831187 0.752941 0.752941 0.752941
vn -4.763693 -3.334951 1.024286
v 3.829614 -24.515516 -6.831549 0.752941 0.752941 0.752941
vn 6.143827 1.163818 -0.224442
v 23.624495 -23.251856 -6.540539 0.752941 0.752941 0.752941
vn -4.316259 -3.640238 -1.228216
v 3.269943 -23.384527 -10.837006 0.752941 0.752941 0.752941
vn -1.321194 -3.058825 -5.201670
v 7.400881 -23.519854 -12.733873 0.752941 0.752941 0.752941
vn -2.731396 -3.547297 4.128271
v 6.543473 -22.402016 -0.331870 0.752941 0.752941 0.752941
vn -3.813831 -2.465942 3.807921
v 4.862743 -20.606615 -0.237914 0.752941 0.752941 0.752941
vn 5.770224 0.633531 -2.011276
v 22.843046 -21.086424 -10.477630 0.752941 0.752941 0.752941
vn 3.807565 -0.973160 -4.565805
v 21.952484 -23.195395 -11.794344 0.752941 0.752941 0.752941
vn -2.106817 -3.243699 -4.129715
v 3.745234 -22.644863 -12.634091 0.752941 0.752941 0.752941
vn -0.004862 -1.279631 -6.121280
v 15.813265 -22.850704 -13.409159 0.752941 0.752941 0.752941
vn -0.408956 -1.223905 -6.081623
v 7.763116 -21.872990 -13.383307 0.752941 0.752941 0.752941
vn -1.240005 -2.823151 5.159296
v 15.354828 -22.206900 3.820586 0.752941 0.752941 0.752941
vn -2.092616 -2.945545 4.863652
v 11.335711 -20.375063 3.555364 0.752941 0.752941 0.752941
vn 4.417557 0.814893 3.554283
v 21.849987 -20.580353 1.148695 0.752941 0.752941 0.752941
vn -2.573413 -2.789576 4.920972
v 8.301559 -20.394657 1.743456 0.752941 0.752941 0.752941
vn 5.643109 1.753590 1.101707
v 23.192671 -18.994772 -3.825639 0.752941 0.752941 0.752941
vn 3.403070 0.518517 -3.856780
v 21.412731 -19.507038 -13.428456 0.752941 0.752941 0.752941
vn 1.257220 -2.052190 -5.257394
v 19.196306 -22.754480 -13.605417 0.752941 0.752941 0.752941
vn -5.368829 -2.408455 1.386808
v 2.421673 -20.922815 -5.075534 0.752941 0.752941 0.752941
vn 5.936464 1.512495 -0.484550
v 23.129686 -18.417028 -6.624693 0.752941 0.752941 0.752941
vn -6.011238 -1.704758 0.204410
v 2.408902 -20.773205 -9.179247 0.752941 0.752941 0.752941
vn -3.918796 -1.160818 -1.874511
v 1.880373 -21.043184 -12.375683 0.752941 0.752941 0.752941
vn 0.803714 -0.180120 -6.061267
v 18.749512 -19.105871 -14.135387 0.752941 0.752941 0.752941
vn -0.067548 -0.874676 -6.181964
v 9.863574 -17.099802 -13.659391 0.752941 0.752941 0.752941
vn -1.660228 -1.175514 -5.692994
v 3.542337 -20.755301 -13.268021 0.752941 0.752941 0.752941
vn -0.244467 -1.631118 6.002089
v 14.576451 -19.239714 4.577100 0.752941 0.752941 0.752941
vn 2.659033 0.124271 5.230227
v 17.993237 -19.215183 4.161057 0.752941 0.752941 0.752941
vn 5.567717 1.463919 2.002981
v 22.869097 -20.822784 -0.838082 0.752941 0.752941 0.752941
vn -3.868728 -1.072751 4.666280
v 5.464091 -16.267456 1.671742 0.752941 0.752941 0.752941
vn -4.825502 -0.843276 3.421223
v 2.364538 -16.464830 -1.389362 0.752941 0.752941 0.752941
vn -6.120785 -0.416534 -1.126302
v 2.092561 -17.878925 -10.650377 0.752941 0.752941 0.752941
vn -0.637528 -0.764894 -6.160615
v 5.055331 -18.443851 -13.695781 0.752941 0.752941 0.752941
vn 4.145322 2.461411 3.814839
v 18.098473 -16.248318 3.035333 0.752941 0.752941 0.752941
vn 0.409351 -0.307409 5.972889
v 14.339844 -16.965738 5.184211 0.752941 0.752941 0.752941
vn -1.756450 -1.118589 5.498568
v 10.683052 -16.729723 4.888708 0.752941 0.752941 0.752941
vn 4.857021 3.099496 2.408513
v 20.635275 -17.324436 -0.020671 0.752941 0.752941 0.752941
vn -5.680106 -1.046866 1.570579
v 0.953057 -16.088364 -4.154995 0.752941 0.752941 0.752941
vn -6.054310 -1.155926 -0.379373
v 0.875473 -16.170319 -6.333589 0.752941 0.752941 0.752941
vn 4.983094 2.672507 -1.697598
v 21.916559 -16.510839 -10.044626 0.752941 0.752941 0.752941
vn 0.214773 -0.275831 -6.173739
v 16.090508 -16.926233 -14.338905 0.752941 0.752941 0.752941
vn -3.963719 -0.579836 -4.090641
v 2.855233 -17.130791 -13.227736 0.752941 0.752941 0.752941
vn 5.065893 3.146783 0.662011
v 22.555058 -16.892269 -5.417530 0.752941 0.752941 0.752941
vn 2.816886 1.085850 -5.149188
v 18.682306 -16.213482 -13.777384 0.752941 0.752941 0.752941
vn 0.243116 -0.615159 -6.230259
v 11.911220 -12.785722 -14.523784 0.752941 0.752941 0.752941
vn 2.621135 1.685410 4.767772
v 16.585331 -16.424183 4.604640 0.752941 0.752941 0.752941
vn 5.142828 2.014207 -2.844529
v 19.808817 -15.077344 -11.720081 0.752941 0.752941 0.752941
vn 1.845966 2.210237 5.214192
v 14.358147 -14.866245 4.799119 0.752941 0.752941 0.752941
vn -3.043237 -0.318479 5.239774
v 7.617769 -14.013288 3.757512 0.752941 0.752941 0.752941
vn 5.154078 2.720121 2.241162
v 19.043755 -15.485095 0.527327 0.752941 0.752941 0.752941
vn -2.413488 -1.343237 -5.553582
v 3.110488 -13.066899 -14.222395 0.752941 0.752941 0.752941
vn -0.768703 0.497160 6.083366
v 10.973358 -13.289467 4.806088 0.752941 0.752941 0.752941
vn 3.379224 2.752391 4.291116
v 14.643828 -12.754742 2.712905 0.752941 0.752941 0.752941
vn -4.706409 0.423602 4.115266
v 3.812320 -14.039283 -0.195540 0.752941 0.752941 0.752941
vn 5.025558 3.647028 0.666247
v 20.525471 -14.547072 -5.858733 0.752941 0.752941 0.752941
vn -5.754313 0.388428 1.161862
v 0.397173 -10.794841 -5.155729 0.752941 0.752941 0.752941
vn 5.398619 2.937973 -1.080027
v 19.909935 -13.997435 -10.075246 0.752941 0.752941 0.752941
vn -0.281615 -1.365427 -6.085983
v 5.585009 -13.145185 -14.710302 0.752941 0.752941 0.752941
vn 1.902184 0.866153 -5.765409
v 15.725038 -10.513649 -14.117139 0.752941 0.752941 0.752941
vn 3.790063 2.494968 3.766523
v 17.579037 -11.980124 0.952942 0.752941 0.752941 0.752941
vn -4.749388 0.106497 3.949962
v 5.007337 -12.593906 1.479045 0.752941 0.752941 0.752941
vn -4.819473 0.764417 3.678077
v 1.608408 -10.845707 -2.856336 0.752941 0.752941 0.752941
vn -6.025776 -0.088812 -1.339753
v 0.816786 -10.633969 -9.889601 0.752941 0.752941 0.752941
vn 3.428635 1.250561 -3.557232
v 18.592241 -12.490734 -13.634046 0.752941 0.752941 0.752941
vn -4.986964 -0.490320 -3.095527
v 2.110065 -10.968986 -14.017666 0.752941 0.752941 0.752941
vn 2.873049 1.602694 5.086702
v 13.245724 -12.954414 4.373943 0.752941 0.752941 0.752941
vn -1.621102 1.324661 5.772791
v 8.835440 -11.663033 4.039999 0.752941 0.752941 0.752941
vn 5.750983 2.325780 0.778707
v 18.970505 -12.324729 -4.547832 0.752941 0.752941 0.752941
vn 5.480874 2.148979 1.735959
v 18.028334 -10.454421 -1.239696 0.752941 0.752941 0.752941
vn 5.776187 2.410720 -0.432208
v 18.837315 -11.557708 -9.721551 0.752941 0.752941 0.752941
vn 1.340365 1.635341 4.346109
v 12.325790 -11.298246 4.798891 0.752941 0.752941 0.752941
vn -2.198750 1.013863 5.416558
v 6.540330 -8.707080 2.719164 0.752941 0.752941 0.752941
vn -2.803955 -0.813625 -4.985350
v 3.270190 -9.928349 -15.325864 0.752941 0.752941 0.752941
vn -0.817053 0.056947 -5.556319
v 4.841718 -7.879507 -16.147024 0.752941 0.752941 0.752941
vn -3.121765 1.266495 3.977264
v 5.103049 -5.664025 1.568271 0.752941 0.752941 0.752941
vn 4.100340 3.024092 3.222932
v 16.755268 -8.366241 -0.909664 0.752941 0.752941 0.752941
vn -4.983954 0.259228 3.410312
v 3.769507 -7.361034 -1.888207 0.752941 0.752941 0.752941
vn -6.116956 0.855182 -0.582383
v 0.727482 -9.067594 -8.607157 0.752941 0.752941 0.752941
vn 4.680178 2.168783 -2.889076
v 17.767838 -9.965275 -12.614254 0.752941 0.752941 0.752941
vn 1.151387 0.126331 -6.082791
v 12.254825 -8.972130 -14.855454 0.752941 0.752941 0.752941
vn 1.721628 2.939770 4.784502
v 12.072021 -8.740430 3.000239 0.752941 0.752941 0.752941
vn 5.785602 2.242671 0.452313
v 17.671761 -7.764655 -5.278650 0.752941 0.752941 0.752941
vn -5.601037 0.936019 2.364859
v 1.857867 -5.964433 -4.235282 0.752941 0.752941 0.752941
vn -3.705770 1.247002 -3.929534
v 3.031840 -5.367889 -14.857133 0.752941 0.752941 0.752941
vn 0.258923 2.352870 5.693338
v 9.115787 -7.687023 2.598347 0.752941 0.752941 0.752941
vn 4.444682 3.635915 1.646258
v 16.691666 -6.263957 -3.703711 0.752941 0.752941 0.752941
vn -5.412242 2.617588 0.594431
v 2.019967 -3.693640 -6.063361 0.752941 0.752941 0.752941
vn 4.968822 3.152379 -1.187899
v 16.969576 -6.553398 -10.643812 0.752941 0.752941 0.752941
vn 4.819273 3.540179 0.184710
v 16.911434 -5.870678 -6.610838 0.752941 0.752941 0.752941
vn 4.039545 2.310673 -3.376678
v 16.679455 -7.491417 -12.773966 0.752941 0.752941 0.752941
vn 2.468043 4.147246 3.425436
v 12.220278 -4.680725 -0.224570 0.752941 0.752941 0.752941
vn -4.034472 2.418480 -2.471157
v 2.594727 -3.313689 -13.319151 0.752941 0.752941 0.752941
vn 2.605313 2.329661 -4.699886
v 13.934983 -5.733130 -13.868253 0.752941 0.752941 0.752941
vn 0.986098 2.392576 -5.380211
v 8.102298 -4.430502 -15.102013 0.752941 0.752941 0.752941
vn 0.015115 3.272479 4.659558
v 7.123653 -4.137885 1.318232 0.752941 0.752941 0.752941
vn 4.583979 3.476241 -2.408947
v 14.613497 -4.676074 -11.830075 0.752941 0.752941 0.752941
vn -0.885064 2.907647 -4.951098
v 5.016564 -3.826251 -15.009674 0.752941 0.752941 0.752941
vn -3.695204 2.268729 3.410007
v 4.256976 -3.718903 -0.328324 0.752941 0.752941 0.752941
vn -4.962224 1.208030 2.435916
v 2.576159 -4.030305 -2.614260 0.752941 0.752941 0.752941
vn 3.669822 4.568274 2.016579
v 13.581686 -3.451185 -4.748837 0.752941 0.752941 0.752941
vn -5.424433 2.616091 -0.341091
v 2.062828 -3.404944 -9.744837 0.752941 0.752941 0.752941
vn 4.899468 3.823510 -0.167572
v 14.924984 -4.102676 -8.953705 0.752941 0.752941 0.752941
vn 2.012953 4.824147 3.362875
v 9.267906 -3.294589 -0.535237 0.752941 0.752941 0.752941
vn -0.774062 4.612130 3.220595
v 6.255558 -2.136510 -0.794737 0.752941 0.752941 0.752941
vn 2.991626 3.767779 -1.105293
v 13.524052 -1.313365 -10.219889 0.752941 0.752941 0.752941
vn 2.234936 3.757465 -4.279504
v 12.467330 -3.052268 -12.725733 0.752941 0.752941 0.752941
vn -3.834647 4.099797 1.835108
v 3.342231 -2.692555 -2.872652 0.752941 0.752941 0.752941
vn 3.083848 3.869564 3.124940
v 10.574299 -2.696800 -3.529857 0.752941 0.752941 0.752941
vn 3.382618 4.635668 1.760809
v 12.535504 -1.512957 -6.405689 0.752941 0.752941 0.752941
vn -3.266585 4.081861 -2.284871
v 3.255615 -2.312963 -12.730962 0.752941 0.752941 0.752941
vn 1.532962 4.383265 -4.136110
v 9.170534 -1.805837 -12.611728 0.752941 0.752941 0.752941
vn -2.005327 5.531679 1.237895
v 6.758677 0.385153 -6.718095 0.752941 0.752941 0.752941
vn 3.001726 4.467171 2.953657
v 9.839583 -1.133875 -4.085778 0.752941 0.752941 0.752941
vn -4.243746 4.472604 0.274133
v 3.496160 -1.624801 -8.407977 0.752941 0.752941 0.752941
vn -0.043754 4.515098 -1.908598
v 6.941835 0.736410 -10.990108 0.752941 0.752941 0.752941
vn 2.579139 5.618859 0.460599
v 10.406369 -0.324424 -7.636022 0.752941 0.752941 0.752941
vn -2.826783 5.225714 -0.324332
v 5.983044 0.429431 -10.201061 0.752941 0.752941 0.752941
vn 2.115050 5.521570 -1.946719
v 9.858305 -0.502242 -9.915451 0.752941 0.752941 0.752941
vn 1.225668 4.959168 2.338284
v 8.571891 -0.155750 -4.355417 0.752941 0.752941 0.752941
vn 1.195745 5.397095 0.450043
v 8.513088 0.795107 -7.465166 0.752941 0.752941 0.752941
vn -0.509815 -5.493993 1.656201
v -21.564234 -36.057045 -8.267756 0.752941 0.752941 0.752941
vn -3.113461 -5.043690 1.775838
v -25.813131 -33.901897 -7.831539 0.752941 0.752941 0.752941
vn -2.119844 -4.598154 -0.403555
v -24.685143 -36.014141 -10.974031 0.752941 0.752941 0.752941
vn 1.110595 -5.661714 -0.158750
v -17.415808 -35.784992 -9.199307 0.752941 0.752941 0.752941
vn -0.081192 -5.299460 -2.276059
v -23.328726 -35.963364 -11.685250 0.752941 0.752941 0.752941
vn 1.479609 -4.896398 -3.414091
v -17.127432 -34.906609 -11.005239 0.752941 0.752941 0.752941
vn 0.582950 -4.736340 3.812365
v -19.021338 -33.798065 -4.643106 0.752941 0.752941 0.752941
vn 1.257215 -5.341839 2.885998
v -17.310579 -34.991604 -7.170578 0.752941 0.752941 0.752941
vn -1.003158 -4.912932 3.539122
v -22.547495 -33.714115 -4.793701 0.752941 0.752941 0.752941
vn 2.058288 -4.595331 0.453993
v -13.185300 -34.768192 -8.778179 0.752941 0.752941 0.752941
vn -4.812638 -2.978503 -0.495241
v -27.285437 -33.351387 -11.237282 0.752941 0.752941 0.752941
vn 0.765063 -3.840245 -4.465930
v -22.667473 -34.357323 -13.681047 0.752941 0.752941 0.752941
vn -1.697206 -2.985625 -4.130705
v -25.499001 -33.262333 -14.470292 0.752941 0.752941 0.752941
vn 2.366529 -4.782267 3.308319
v -12.147344 -32.246025 -6.405558 0.752941 0.752941 0.752941
vn 1.030521 -3.445256 -5.099599
v -18.289165 -32.767262 -13.221764 0.752941 0.752941 0.752941
vn 0.518885 0.016810 -5.017321
v -23.226063 -32.420681 -14.904889 0.752941 0.752941 0.752941
vn 1.848469 -4.201655 4.063741
v -14.802694 -31.413330 -3.314525 0.752941 0.752941 0.752941
vn -3.534980 -3.693888 1.878598
v -26.888344 -32.557003 -5.216568 0.752941 0.752941 0.752941
vn 4.032345 -4.097434 1.003673
v -11.017137 -32.998989 -8.527118 0.752941 0.752941 0.752941
vn 3.455346 -3.597883 -2.298725
v -11.134663 -32.948658 -10.467944 0.752941 0.752941 0.752941
vn 1.605545 -1.307768 -4.727412
v -13.936734 -31.186169 -13.728453 0.752941 0.752941 0.752941
vn 0.185370 0.446873 -5.819189
v -19.904560 -31.225590 -14.057269 0.752941 0.752941 0.752941
vn -2.037306 0.314184 -2.059101
v -27.372581 -31.797319 -14.438776 0.752941 0.752941 0.752941
vn -0.804899 -4.210800 4.472581
v -22.493046 -29.103693 -0.210530 0.752941 0.752941 0.752941
vn -1.855279 -3.613350 4.351138
v -25.316895 -31.123081 -2.459182 0.752941 0.752941 0.752941
vn -5.420927 0.811783 -0.124817
v -27.958273 -30.706207 -9.023993 0.752941 0.752941 0.752941
vn -4.918086 1.951972 -1.273800
v -27.562338 -31.062271 -12.069558 0.752941 0.752941 0.752941
vn 3.748927 -1.511970 -4.545148
v -11.374879 -31.086889 -11.822964 0.752941 0.752941 0.752941
vn 0.344663 0.145152 -4.977800
v -17.495291 -30.989702 -14.316343 0.752941 0.752941 0.752941
vn 0.406483 -5.077637 3.643140
v -19.690399 -28.358976 0.532147 0.752941 0.752941 0.752941
vn 1.615357 -4.421060 4.049824
v -16.231241 -28.663620 -0.563115 0.752941 0.752941 0.752941
vn -3.890378 -1.645402 4.298173
v -25.069185 -29.047558 -1.392486 0.752941 0.752941 0.752941
vn -3.973979 -0.990221 2.964640
v -27.002258 -30.654387 -3.200034 0.752941 0.752941 0.752941
vn 3.595939 -3.660952 2.393600
v -9.362017 -30.559214 -5.880366 0.752941 0.752941 0.752941
vn 2.756004 -3.369889 4.479691
v -12.483521 -30.195728 -3.614010 0.752941 0.752941 0.752941
vn -5.302485 0.387208 0.971754
v -27.703951 -30.512838 -5.089641 0.752941 0.752941 0.752941
vn -0.709139 3.997352 -4.730889
v -22.460386 -30.184746 -13.321096 0.752941 0.752941 0.752941
vn -5.786872 0.894718 1.820356
v -25.921946 -28.172218 -2.850410 0.752941 0.752941 0.752941
vn 3.771242 -3.496251 3.079094
v -7.511260 -27.674160 -5.281173 0.752941 0.752941 0.752941
vn 4.379699 -4.268201 -0.708446
v -7.149365 -27.909979 -7.995273 0.752941 0.752941 0.752941
vn 3.879362 -2.852556 -3.815624
v -7.873283 -27.687675 -9.678318 0.752941 0.752941 0.752941
vn -5.208245 2.798164 -1.755900
v -25.971485 -28.010828 -9.786675 0.752941 0.752941 0.752941
vn -2.349815 3.765689 -4.204586
v -25.393490 -29.393612 -11.561908 0.752941 0.752941 0.752941
vn 2.847696 -0.335036 -5.529054
v -12.505064 -28.587481 -12.591280 0.752941 0.752941 0.752941
vn -0.715925 1.810754 -5.896545
v -19.144361 -28.804531 -13.010233 0.752941 0.752941 0.752941
vn -5.806213 2.144948 -0.034343
v -25.913628 -27.493176 -6.037936 0.752941 0.752941 0.752941
vn 0.555466 -0.003208 -6.186537
v -14.494981 -27.635489 -13.269760 0.752941 0.752941 0.752941
vn 0.965800 -4.858358 3.742867
v -16.267355 -26.777977 2.262257 0.752941 0.752941 0.752941
vn 3.904369 -3.175483 3.596681
v -13.016643 -26.322405 -0.647125 0.752941 0.752941 0.752941
vn -5.351111 0.642640 1.677715
v -25.820986 -25.825684 -1.509766 0.752941 0.752941 0.752941
vn 2.786029 -2.779905 4.849808
v -9.893802 -25.953125 -2.940509 0.752941 0.752941 0.752941
vn -5.941523 1.385645 -1.181710
v -25.553617 -26.541765 -9.322828 0.752941 0.752941 0.752941
vn -1.980495 -1.212100 -5.759891
v -21.409336 -26.618322 -12.466623 0.752941 0.752941 0.752941
vn -2.480181 0.721858 -5.670496
v -23.950626 -26.906382 -11.391982 0.752941 0.752941 0.752941
vn -0.506886 -3.942926 4.681566
v -19.166655 -26.170349 3.118391 0.752941 0.752941 0.752941
vn -2.753514 -1.587829 4.104977
v -23.217968 -25.936901 2.557646 0.752941 0.752941 0.752941
vn 3.216237 -3.972250 2.908980
v -14.272655 -25.863413 2.574937 0.752941 0.752941 0.752941
vn -5.341530 0.381495 3.021176
v -24.510277 -25.272894 0.582514 0.752941 0.752941 0.752941
vn 4.218743 -3.474553 -0.237324
v -5.353007 -26.624586 -7.719042 0.752941 0.752941 0.752941
vn 3.150865 -3.333050 3.982291
v -6.388091 -25.122009 -3.907147 0.752941 0.752941 0.752941
vn 3.347429 -3.874295 -3.037192
v -5.618111 -24.959763 -10.436581 0.752941 0.752941 0.752941
vn 2.445571 -2.611906 -5.041072
v -8.733191 -25.337572 -11.237114 0.752941 0.752941 0.752941
vn -4.562292 0.827122 -4.030935
v -24.802528 -26.121120 -10.750066 0.752941 0.752941 0.752941
vn 1.073381 -3.451808 4.653545
v -15.535860 -24.644491 4.566611 0.752941 0.752941 0.752941
vn -2.221158 -1.891813 5.475047
v -20.035736 -24.501154 3.763759 0.752941 0.752941 0.752941
vn 4.720237 -2.772101 2.102829
v -4.477572 -23.930849 -4.898637 0.752941 0.752941 0.752941
vn -6.142911 1.130980 0.500413
v -24.929718 -22.367777 -6.193642 0.752941 0.752941 0.752941
vn 0.272745 -0.847801 -6.181010
v -16.045637 -24.359341 -13.585786 0.752941 0.752941 0.752941
vn 1.285868 -1.837545 -5.779300
v -10.440300 -23.646921 -12.954114 0.752941 0.752941 0.752941
vn -1.680393 -1.843635 5.186143
v -18.261971 -22.832426 5.492765 0.752941 0.752941 0.752941
vn 3.303200 -2.591919 3.975262
v -13.581949 -23.239847 4.566263 0.752941 0.752941 0.752941
vn -5.894126 1.707823 1.203559
v -24.102947 -22.873697 -0.368339 0.752941 0.752941 0.752941
vn 3.304898 -3.116283 3.364698
v -11.437861 -23.495073 -0.892890 0.752941 0.752941 0.752941
vn 5.761304 -2.138355 -0.459280
v -3.984621 -23.267216 -8.402628 0.752941 0.752941 0.752941
vn -5.958747 0.463963 -1.109684
v -25.049559 -21.295666 -9.870880 0.752941 0.752941 0.752941
vn -3.794488 -0.224649 -4.948472
v -22.619892 -24.148090 -12.208170 0.752941 0.752941 0.752941
vn -2.165679 -1.455446 -4.638824
v -21.233824 -24.478550 -13.697226 0.752941 0.752941 0.752941
vn -0.436104 -1.146553 -5.752877
v -19.777180 -23.423222 -14.195167 0.752941 0.752941 0.752941
vn 0.887356 -1.248890 5.761687
v -15.472636 -21.122908 6.067012 0.752941 0.752941 0.752941
vn -3.869550 0.511081 4.434525
v -22.839361 -23.114853 2.740238 0.752941 0.752941 0.752941
vn -3.789256 0.524815 4.841220
v -20.632608 -21.277468 3.920820 0.752941 0.752941 0.752941
vn 2.644101 -3.367867 4.547467
v -7.259662 -22.332571 -1.842849 0.752941 0.752941 0.752941
vn 5.894382 -1.716157 0.785592
v -2.933603 -19.605301 -4.813335 0.752941 0.752941 0.752941
vn 3.687187 -2.005060 -2.425145
v -4.125123 -22.933315 -12.217133 0.752941 0.752941 0.752941
vn 1.517836 -2.613220 -4.665931
v -5.319995 -22.965063 -12.881483 0.752941 0.752941 0.752941
vn -4.141702 1.386182 -3.327681
v -24.503206 -18.852278 -10.867373 0.752941 0.752941 0.752941
vn 4.105160 -3.535459 3.014318
v -11.395757 -21.833921 1.960805 0.752941 0.752941 0.752941
vn -4.395950 2.081547 2.949289
v -22.787085 -18.088181 1.153360 0.752941 0.752941 0.752941
vn 3.950868 -1.983243 4.158107
v -4.229438 -18.976898 -1.494945 0.752941 0.752941 0.752941
vn 0.365663 -0.794151 -6.203810
v -10.816057 -21.960913 -13.372090 0.752941 0.752941 0.752941
vn -2.361550 0.806229 4.522928
v -18.306997 -19.069914 6.138340 0.752941 0.752941 0.752941
vn 3.111337 -3.414992 3.898136
v -8.430004 -21.096642 0.561191 0.752941 0.752941 0.752941
vn 5.190426 -1.441058 2.667751
v -3.114414 -18.215109 -2.532934 0.752941 0.752941 0.752941
vn 1.676110 -0.617242 -5.713802
v -5.589674 -20.693504 -13.369668 0.752941 0.752941 0.752941
vn 3.331734 -2.121626 4.709429
v -11.657688 -18.871616 4.959212 0.752941 0.752941 0.752941
vn 3.902882 -2.359100 4.222822
v -7.421576 -19.131294 0.933512 0.752941 0.752941 0.752941
vn -5.506180 1.752436 -1.117822
v -24.753613 -18.703138 -10.034991 0.752941 0.752941 0.752941
vn -3.963319 0.700155 -4.726301
v -22.416330 -18.563585 -11.932905 0.752941 0.752941 0.752941
vn 0.484175 -0.604652 -6.202487
v -14.104562 -18.359074 -13.648456 0.752941 0.752941 0.752941
vn -5.797703 1.790336 1.465375
v -23.163254 -17.115005 -1.656480 0.752941 0.752941 0.752941
vn -5.116950 2.488953 0.164256
v -24.029955 -15.352015 -6.554780 0.752941 0.752941 0.752941
vn 6.072337 -0.702001 -1.418592
v -3.254208 -17.582253 -10.024829 0.752941 0.752941 0.752941
vn 4.964466 -0.741576 -3.197009
v -3.861218 -17.296701 -12.485190 0.752941 0.752941 0.752941
vn 1.681270 -1.464559 -5.712985
v -5.288558 -16.812304 -13.555881 0.752941 0.752941 0.752941
vn -0.500426 0.209562 -6.140522
v -17.443325 -15.062530 -14.383760 0.752941 0.752941 0.752941
vn -2.907088 0.624927 -4.963393
v -20.497198 -16.309111 -13.927375 0.752941 0.752941 0.752941
vn 1.769404 -0.612570 5.746959
v -12.461138 -17.268879 5.826233 0.752941 0.752941 0.752941
vn -4.239045 2.263434 3.980186
v -19.493679 -16.706556 2.768739 0.752941 0.752941 0.752941
vn 5.887976 -0.146985 -0.176464
v -1.703886 -14.617313 -5.771925 0.752941 0.752941 0.752941
vn -1.810374 1.133776 5.360361
v -16.114647 -16.136736 5.976580 0.752941 0.752941 0.752941
vn 3.770287 -1.421773 4.530232
v -8.744536 -16.294792 3.905081 0.752941 0.752941 0.752941
vn 4.605778 -0.002419 3.742579
v -3.163442 -15.025504 -1.643231 0.752941 0.752941 0.752941
vn -4.851712 1.981965 -3.278555
v -22.730740 -16.640568 -11.178641 0.752941 0.752941 0.752941
vn 4.766201 -0.158734 3.934759
v -6.181998 -14.427742 0.700306 0.752941 0.752941 0.752941
vn -0.143652 -1.106558 -6.169809
v -12.480708 -13.869644 -14.404964 0.752941 0.752941 0.752941
vn 0.562501 1.209649 5.777749
v -12.730933 -12.531189 5.862352 0.752941 0.752941 0.752941
vn 4.236595 -0.307770 4.013981
v -7.572035 -13.305484 3.599389 0.752941 0.752941 0.752941
vn -4.968514 2.972518 2.112480
v -22.091932 -14.718009 -1.680253 0.752941 0.752941 0.752941
vn 5.780971 0.252272 1.661430
v -1.955044 -14.114861 -4.183753 0.752941 0.752941 0.752941
vn 5.019733 -0.791331 -2.895017
v -3.851443 -12.867106 -14.062883 0.752941 0.752941 0.752941
vn 6.072458 0.089810 -1.543613
v -2.949182 -13.048294 -10.174257 0.752941 0.752941 0.752941
vn 1.549325 -2.187355 -5.236328
v -5.178190 -15.148744 -14.259944 0.752941 0.752941 0.752941
vn -2.161779 1.543430 5.352938
v -14.949701 -13.106695 5.693072 0.752941 0.752941 0.752941
vn 2.208758 1.292005 5.303751
v -9.610538 -11.439479 4.815948 0.752941 0.752941 0.752941
vn -4.356352 2.076168 3.877705
v -18.253809 -12.929585 2.792368 0.752941 0.752941 0.752941
vn -4.986112 2.250166 2.948555
v -20.364597 -13.202120 -0.007751 0.752941 0.752941 0.752941
vn -5.593516 2.571321 -0.815829
v -22.085281 -13.286588 -9.213428 0.752941 0.752941 0.752941
vn -0.858577 -1.126927 -6.061743
v -10.779437 -11.850097 -15.024171 0.752941 0.752941 0.752941
vn -3.002634 2.056531 -4.155101
v -20.022213 -12.202144 -13.314631 0.752941 0.752941 0.752941
vn -5.358931 2.881180 0.880818
v -21.106033 -12.431950 -5.491094 0.752941 0.752941 0.752941
vn 1.458086 -1.147432 -4.987833
v -5.468457 -11.766725 -15.912348 0.752941 0.752941 0.752941
vn -0.999067 0.338870 -6.160179
v -15.049606 -11.883380 -14.380962 0.752941 0.752941 0.752941
vn 3.979426 0.738198 4.193837
v -7.356846 -9.820884 2.897285 0.752941 0.752941 0.752941
vn -5.541535 2.481613 1.478573
v -20.398731 -11.955339 -1.919336 0.752941 0.752941 0.752941
vn 4.873320 0.306039 -2.898519
v -3.991864 -10.435296 -14.733349 0.752941 0.752941 0.752941
vn -2.324381 2.101662 -5.191072
v -17.306286 -10.829290 -13.670581 0.752941 0.752941 0.752941
vn -2.887825 3.102480 3.968715
v -15.162658 -9.836310 4.218891 0.752941 0.752941 0.752941
vn 4.907972 -0.114863 2.843165
v -6.655583 -11.161873 0.448999 0.752941 0.752941 0.752941
vn 5.295849 0.938222 3.083649
v -4.219951 -8.841692 -2.078265 0.752941 0.752941 0.752941
vn 5.576044 1.483559 1.593971
v -2.799997 -10.113105 -3.860089 0.752941 0.752941 0.752941
vn -4.122546 3.136141 -2.285195
v -20.754126 -10.509146 -10.870019 0.752941 0.752941 0.752941
vn -0.717214 2.925214 5.164993
v -13.881838 -10.144860 4.867968 0.752941 0.752941 0.752941
vn -3.357483 3.271575 4.100388
v -15.643270 -8.226691 1.628042 0.752941 0.752941 0.752941
vn -4.581480 2.204540 3.565960
v -18.861624 -9.744571 -0.255635 0.752941 0.752941 0.752941
vn -5.910284 1.998316 0.098456
v -20.669046 -9.642496 -7.957510 0.752941 0.752941 0.752941
vn 6.019506 1.291795 -0.862177
v -3.392112 -8.467667 -10.230115 0.752941 0.752941 0.752941
vn 0.752002 2.707733 5.529589
v -10.442811 -8.460077 3.497180 0.752941 0.752941 0.752941
vn -5.485864 2.503380 -0.072669
v -20.116062 -7.735211 -6.990685 0.752941 0.752941 0.752941
vn -1.939179 0.588381 -5.882940
v -13.108797 -9.178425 -14.588486 0.752941 0.752941 0.752941
vn 2.013266 0.935785 -5.242859
v -5.928340 -7.339112 -15.913379 0.752941 0.752941 0.752941
vn -1.384437 3.673430 4.847247
v -12.554549 -6.977870 2.371308 0.752941 0.752941 0.752941
vn 2.565031 2.256794 4.866935
v -7.730273 -6.415271 2.239553 0.752941 0.752941 0.752941
vn 4.581194 1.281216 3.090125
v -5.449754 -6.913863 0.557922 0.752941 0.752941 0.752941
vn -5.210075 2.737468 -1.761984
v -20.160759 -8.573246 -8.666867 0.752941 0.752941 0.752941
vn -3.816424 1.662242 -4.598289
v -17.254858 -8.334429 -12.300448 0.752941 0.752941 0.752941
vn 3.094712 2.572623 -2.957773
v -5.441756 -4.577271 -14.722769 0.752941 0.752941 0.752941
vn -0.727884 0.562214 -5.984754
v -8.403450 -7.454007 -15.979996 0.752941 0.752941 0.752941
vn 0.181533 3.104724 4.945930
v -9.413182 -5.931583 2.492417 0.752941 0.752941 0.752941
vn -3.124030 2.979090 4.403255
v -16.094862 -5.519230 -0.140840 0.752941 0.752941 0.752941
vn -4.228339 2.632314 2.429487
v -18.799511 -6.516504 -1.598902 0.752941 0.752941 0.752941
vn -4.434749 1.070121 -3.637302
v -18.159918 -6.746460 -11.409348 0.752941 0.752941 0.752941
vn -2.964841 1.486682 -5.223003
v -14.549587 -6.519017 -13.042242 0.752941 0.752941 0.752941
vn 5.491180 2.466066 1.440714
v -4.632189 -5.292777 -3.798447 0.752941 0.752941 0.752941
vn 5.296528 2.839248 -0.360784
v -4.726906 -3.536391 -9.271667 0.752941 0.752941 0.752941
vn -2.203686 2.039338 -4.653621
v -12.373588 -5.126023 -14.709380 0.752941 0.752941 0.752941
vn 2.047715 4.077073 3.557918
v -7.904285 -4.405123 0.842252 0.752941 0.752941 0.752941
vn -5.434460 2.492536 -1.569367
v -17.966499 -5.090964 -10.336092 0.752941 0.752941 0.752941
vn -2.762676 2.598899 -3.903513
v -16.445124 -3.096133 -11.654549 0.752941 0.752941 0.752941
vn 0.359061 3.270248 -4.708902
v -7.247304 -4.430083 -15.134583 0.752941 0.752941 0.752941
vn 4.231781 3.434524 2.676230
v -5.927700 -5.391364 -0.244627 0.752941 0.752941 0.752941
vn -0.124557 4.268913 4.588504
v -11.061077 -3.211165 -0.473077 0.752941 0.752941 0.752941
vn -4.522403 3.577444 2.329919
v -17.159252 -4.686946 -2.322525 0.752941 0.752941 0.752941
vn 4.317849 3.823112 1.417117
v -5.394223 -3.221994 -5.179152 0.752941 0.752941 0.752941
vn -5.414506 3.111753 0.350081
v -17.951189 -4.722879 -5.700701 0.752941 0.752941 0.752941
vn -0.502681 4.786916 3.203840
v -13.094028 -1.286578 -2.016304 0.752941 0.752941 0.752941
vn -2.423845 3.965385 2.860373
v -15.086926 -1.759562 -2.050146 0.752941 0.752941 0.752941
vn -4.624476 3.467122 0.914879
v -16.819380 -2.094930 -5.026471 0.752941 0.752941 0.752941
vn -3.327883 3.701130 -1.727198
v -16.691685 -2.284188 -10.501946 0.752941 0.752941 0.752941
vn -1.743926 3.524628 -4.702050
v -13.407864 -3.210059 -12.577375 0.752941 0.752941 0.752941
vn 1.441017 5.083856 2.665884
v -10.459199 -1.168539 -2.650108 0.752941 0.752941 0.752941
vn 2.819099 4.647179 -1.563018
v -6.705185 -1.384499 -10.544230 0.752941 0.752941 0.752941
vn 0.173598 4.883966 -3.587255
v -9.306838 -1.502059 -11.832106 0.752941 0.752941 0.752941
vn 3.727596 4.681838 0.579279
v -6.345366 -1.580687 -8.180732 0.752941 0.752941 0.752941
vn -1.395477 5.153460 -2.854290
v -12.684350 -1.105175 -10.572084 0.752941 0.752941 0.752941
vn -2.605905 5.248324 0.193517
v -15.666388 -1.033825 -5.850391 0.752941 0.752941 0.752941
vn -0.447711 5.976746 1.208675
v -12.245440 -0.483561 -4.359352 0.752941 0.752941 0.752941
vn 1.511139 5.579778 0.748292
v -9.382856 -0.091925 -7.107965 0.752941 0.752941 0.752941
vn -0.120761 5.548946 -1.392689
v -10.527324 -0.032315 -9.326654 0.752941 0.752941 0.752941
# 360 vertices, 0 vertices normals


usemtl material_0
f 1//1 2//2 3//3
f 2//2 4//4 3//3
f 4//4 2//2 5//5
f 4//4 5//5 6//6
f 5//5 7//7 6//6
f 1//1 3//3 8//8
f 4//4 8//8 3//3
f 2//2 9//9 5//5
f 10//10 1//1 11//11
f 1//1 10//10 2//2
f 6//6 7//7 12//12
f 13//13 1//1 8//8
f 8//8 4//4 14//14
f 6//6 14//14 4//4
f 9//9 2//2 10//10
f 12//12 15//15 6//6
f 16//16 13//13 8//8
f 17//17 16//16 8//8
f 8//8 14//14 17//17
f 15//15 18//18 6//6
f 14//14 6//6 18//18
f 17//17 14//14 19//19
f 20//20 19//19 14//14
f 21//21 9//9 10//10
f 22//22 10//10 11//11
f 22//22 11//11 23//23
f 24//24 5//5 9//9
f 5//5 24//24 7//7
f 11//11 1//1 23//23
f 23//23 1//1 13//13
f 14//14 18//18 20//20
f 16//16 17//17 25//25
f 16//16 25//25 26//26
f 17//17 19//19 25//25
f 19//19 20//20 25//25
f 21//21 27//27 9//9
f 28//28 22//22 23//23
f 23//23 13//13 29//29
f 30//30 15//15 12//12
f 31//31 18//18 15//15
f 13//13 16//16 29//29
f 26//26 29//29 16//16
f 32//32 33//33 21//21
f 21//21 33//33 27//27
f 32//32 22//22 34//34
f 32//32 21//21 10//10
f 32//32 10//10 22//22
f 22//22 28//28 34//34
f 27//27 24//24 9//9
f 35//35 7//7 24//24
f 23//23 29//29 36//36
f 7//7 35//35 12//12
f 30//30 12//12 35//35
f 15//15 30//30 37//37
f 15//15 37//37 31//31
f 38//38 20//20 18//18
f 26//26 25//25 38//38
f 25//25 20//20 38//38
f 39//39 27//27 33//33
f 27//27 40//40 24//24
f 36//36 28//28 23//23
f 29//29 41//41 36//36
f 29//29 26//26 42//42
f 43//43 42//42 38//38
f 26//26 38//38 42//42
f 38//38 44//44 43//43
f 38//38 18//18 44//44
f 18//18 31//31 44//44
f 39//39 40//40 27//27
f 32//32 34//34 45//45
f 28//28 46//46 45//45
f 28//28 45//45 34//34
f 28//28 36//36 46//46
f 35//35 47//47 30//30
f 42//42 41//41 29//29
f 48//48 41//41 42//42
f 47//47 37//37 30//30
f 42//42 43//43 48//48
f 44//44 31//31 49//49
f 31//31 37//37 49//49
f 50//50 32//32 51//51
f 50//50 33//33 32//32
f 33//33 50//50 39//39
f 52//52 45//45 53//53
f 32//32 45//45 52//52
f 45//45 46//46 53//53
f 24//24 54//54 35//35
f 36//36 41//41 55//55
f 35//35 54//54 56//56
f 35//35 56//56 47//47
f 47//47 57//57 37//37
f 37//37 57//57 49//49
f 52//52 51//51 32//32
f 24//24 40//40 58//58
f 58//58 59//59 24//24
f 54//54 24//24 59//59
f 46//46 36//36 55//55
f 41//41 60//60 55//55
f 41//41 48//48 60//60
f 61//61 60//60 48//48
f 62//62 47//47 56//56
f 48//48 43//43 61//61
f 62//62 57//57 47//47
f 43//43 44//44 63//63
f 44//44 49//49 63//63
f 49//49 57//57 64//64
f 50//50 51//51 65//65
f 50//50 65//65 39//39
f 66//66 39//39 65//65
f 53//53 67//67 52//52
f 39//39 58//58 40//40
f 39//39 68//68 58//58
f 69//69 53//53 46//46
f 46//46 55//55 69//69
f 60//60 61//61 70//70
f 61//61 43//43 71//71
f 43//43 63//63 71//71
f 49//49 64//64 63//63
f 62//62 64//64 57//57
f 52//52 67//67 51//51
f 66//66 68//68 39//39
f 59//59 72//72 54//54
f 73//73 69//69 55//55
f 54//54 74//74 56//56
f 54//54 72//72 74//74
f 56//56 74//74 75//75
f 56//56 75//75 62//62
f 61//61 71//71 70//70
f 71//71 76//76 70//70
f 71//71 63//63 76//76
f 63//63 64//64 77//77
f 64//64 62//62 78//78
f 62//62 75//75 78//78
f 79//79 65//65 51//51
f 65//65 79//79 66//66
f 80//80 51//51 67//67
f 68//68 59//59 58//58
f 67//67 53//53 81//81
f 53//53 69//69 81//81
f 51//51 80//80 79//79
f 68//68 82//82 59//59
f 59//59 83//83 72//72
f 73//73 55//55 60//60
f 74//74 84//84 75//75
f 64//64 78//78 85//85
f 80//80 67//67 86//86
f 87//87 79//79 80//80
f 88//88 66//66 79//79
f 82//82 66//66 88//88
f 66//66 82//82 68//68
f 67//67 81//81 89//89
f 89//89 81//81 69//69
f 90//90 72//72 83//83
f 91//91 74//74 72//72
f 60//60 70//70 92//92
f 63//63 93//93 76//76
f 64//64 85//85 77//77
f 85//85 78//78 94//94
f 78//78 75//75 94//94
f 79//79 87//87 88//88
f 86//86 67//67 89//89
f 83//83 59//59 82//82
f 91//91 72//72 90//90
f 69//69 73//73 95//95
f 91//91 84//84 74//74
f 92//92 73//73 60//60
f 92//92 70//70 96//96
f 84//84 94//94 75//75
f 96//96 70//70 76//76
f 97//97 93//93 63//63
f 98//98 87//87 80//80
f 80//80 86//86 98//98
f 95//95 89//89 69//69
f 95//95 73//73 92//92
f 92//92 96//96 99//99
f 63//63 77//77 97//97
f 87//87 98//98 100//100
f 88//88 101//101 82//82
f 89//89 95//95 102//102
f 76//76 93//93 96//96
f 103//103 85//85 94//94
f 87//87 100//100 104//104
f 87//87 104//104 88//88
f 98//98 105//105 100//100
f 98//98 86//86 105//105
f 86//86 89//89 102//102
f 82//82 106//106 83//83
f 102//102 95//95 107//107
f 90//90 108//108 91//91
f 95//95 92//92 109//109
f 95//95 109//109 107//107
f 99//99 109//109 92//92
f 77//77 85//85 110//110
f 96//96 93//93 111//111
f 77//77 110//110 97//97
f 85//85 103//103 110//110
f 88//88 104//104 101//101
f 86//86 102//102 112//112
f 113//113 82//82 101//101
f 114//114 83//83 106//106
f 84//84 115//115 94//94
f 116//116 109//109 99//99
f 116//116 99//99 96//96
f 94//94 117//117 103//103
f 96//96 111//111 116//116
f 97//97 111//111 93//93
f 100//100 118//118 104//104
f 104//104 119//119 101//101
f 100//100 105//105 118//118
f 82//82 113//113 106//106
f 120//120 121//121 102//102
f 83//83 114//114 90//90
f 107//107 120//120 102//102
f 108//108 90//90 114//114
f 120//120 107//107 122//122
f 91//91 108//108 115//115
f 107//107 109//109 122//122
f 84//84 91//91 115//115
f 115//115 117//117 94//94
f 118//118 123//123 104//104
f 104//104 123//123 119//119
f 118//118 105//105 123//123
f 101//101 119//119 124//124
f 101//101 124//124 113//113
f 112//112 105//105 86//86
f 102//102 121//121 112//112
f 110//110 103//103 125//125
f 110//110 125//125 126//126
f 113//113 124//124 127//127
f 112//112 121//121 128//128
f 113//113 129//129 106//106
f 106//106 129//129 114//114
f 108//108 130//130 115//115
f 131//131 109//109 116//116
f 111//111 131//131 116//116
f 132//132 111//111 97//97
f 97//97 110//110 132//132
f 125//125 103//103 117//117
f 110//110 126//126 132//132
f 123//123 133//133 119//119
f 123//123 105//105 133//133
f 112//112 128//128 105//105
f 129//129 113//113 127//127
f 120//120 122//122 134//134
f 122//122 109//109 131//131
f 119//119 133//133 124//124
f 128//128 133//133 105//105
f 120//120 134//134 121//121
f 114//114 135//135 108//108
f 136//136 117//117 115//115
f 117//117 136//136 125//125
f 124//124 133//133 137//137
f 138//138 128//128 121//121
f 121//121 134//134 138//138
f 135//135 114//114 129//129
f 108//108 139//139 130//130
f 134//134 122//122 140//140
f 134//134 140//140 141//141
f 122//122 131//131 140//140
f 131//131 142//142 140//140
f 131//131 111//111 142//142
f 136//136 126//126 125//125
f 137//137 127//127 124//124
f 133//133 128//128 143//143
f 134//134 141//141 138//138
f 135//135 139//139 108//108
f 130//130 144//144 115//115
f 144//144 136//136 115//115
f 142//142 111//111 145//145
f 111//111 132//132 145//145
f 132//132 146//146 145//145
f 132//132 126//126 146//146
f 137//137 147//147 127//127
f 133//133 143//143 137//137
f 137//137 143//143 147//147
f 143//143 128//128 138//138
f 140//140 142//142 148//148
f 142//142 145//145 148//148
f 126//126 149//149 146//146
f 149//149 126//126 136//136
f 127//127 150//150 129//129
f 151//151 129//129 150//150
f 129//129 151//151 135//135
f 143//143 138//138 152//152
f 139//139 153//153 130//130
f 141//141 140//140 154//154
f 130//130 153//153 144//144
f 154//154 140//140 148//148
f 147//147 143//143 155//155
f 147//147 150//150 127//127
f 147//147 156//156 150//150
f 139//139 135//135 151//151
f 152//152 138//138 141//141
f 141//141 154//154 152//152
f 154//154 148//148 157//157
f 148//148 145//145 157//157
f 158//158 145//145 146//146
f 159//159 151//151 150//150
f 155//155 143//143 160//160
f 143//143 152//152 160//160
f 159//159 139//139 151//151
f 152//152 157//157 161//161
f 152//152 154//154 157//157
f 158//158 157//157 145//145
f 153//153 162//162 144//144
f 163//163 158//158 146//146
f 149//149 136//136 144//144
f 147//147 155//155 156//156
f 156//156 159//159 150//150
f 159//159 156//156 164//164
f 155//155 160//160 165//165
f 152//152 165//165 160//160
f 139//139 159//159 166//166
f 139//139 166//166 153//153
f 162//162 153//153 166//166
f 163//163 157//157 158//158
f 146//146 149//149 167//167
f 149//149 162//162 167//167
f 162//162 149//149 144//144
f 155//155 165//165 156//156
f 165//165 152//152 161//161
f 164//164 166//166 159//159
f 168//168 165//165 161//161
f 166//166 169//169 162//162
f 170//170 157//157 163//163
f 169//169 167//167 162//162
f 163//163 146//146 167//167
f 165//165 171//171 156//156
f 164//164 156//156 171//171
f 172//172 171//171 165//165
f 165//165 168//168 172//172
f 161//161 157//157 168//168
f 157//157 170//170 168//168
f 168//168 170//170 172//172
f 164//164 169//169 166//166
f 170//170 163//163 167//167
f 171//171 172//172 164//164
f 172//172 170//170 167//167
f 172//172 169//169 164//164
f 172//172 167//167 169//169
f 173//173 174//174 175//175
f 176//176 173//173 177//177
f 177//177 173//173 175//175
f 176//176 177//177 178//178
f 179//179 173//173 180//180
f 173//173 181//181 174//174
f 176//176 182//182 180//180
f 180//180 173//173 176//176
f 176//176 178//178 182//182
f 183//183 175//175 174//174
f 178//178 177//177 184//184
f 184//184 177//177 185//185
f 177//177 175//175 185//185
f 181//181 173//173 179//179
f 182//182 186//186 180//180
f 178//178 184//184 187//187
f 175//175 183//183 185//185
f 184//184 185//185 188//188
f 189//189 179//179 180//180
f 189//189 180//180 186//186
f 174//174 181//181 190//190
f 191//191 186//186 182//182
f 174//174 190//190 183//183
f 191//191 182//182 192//192
f 182//182 178//178 192//192
f 178//178 193//193 192//192
f 178//178 187//187 193//193
f 194//194 187//187 184//184
f 185//185 183//183 195//195
f 179//179 196//196 181//181
f 181//181 197//197 190//190
f 190//190 198//198 183//183
f 199//199 183//183 198//198
f 192//192 193//193 200//200
f 183//183 199//199 195//195
f 201//201 193//193 187//187
f 194//194 184//184 188//188
f 195//195 188//188 185//185
f 202//202 196//196 203//203
f 204//204 197//197 196//196
f 205//205 197//197 204//204
f 189//189 203//203 179//179
f 179//179 203//203 196//196
f 196//196 197//197 181//181
f 197//197 205//205 190//190
f 206//206 207//207 189//189
f 208//208 190//190 205//205
f 186//186 191//191 206//206
f 206//206 189//189 186//186
f 191//191 192//192 206//206
f 190//190 208//208 198//198
f 187//187 194//194 201//201
f 209//209 194//194 188//188
f 188//188 195//195 209//209
f 207//207 203//203 189//189
f 210//210 205//205 204//204
f 206//206 211//211 207//207
f 206//206 192//192 212//212
f 200//200 213//213 192//192
f 214//214 199//199 198//198
f 214//214 215//215 199//199
f 195//195 199//199 215//215
f 200//200 193//193 216//216
f 194//194 217//217 201//201
f 217//217 194//194 209//209
f 209//209 195//195 215//215
f 210//210 208//208 205//205
f 218//218 198//198 208//208
f 206//206 212//212 211//211
f 212//212 192//192 213//213
f 216//216 213//213 200//200
f 217//217 209//209 215//215
f 216//216 193//193 219//219
f 193//193 201//201 217//217
f 193//193 217//217 219//219
f 203//203 220//220 202//202
f 207//207 221//221 203//203
f 204//204 222//222 210//210
f 210//210 218//218 208//208
f 223//223 207//207 211//211
f 218//218 224//224 214//214
f 218//218 214//214 198//198
f 225//225 217//217 226//226
f 217//217 215//215 226//226
f 217//217 225//225 219//219
f 220//220 227//227 202//202
f 196//196 202//202 227//227
f 227//227 228//228 196//196
f 229//229 220//220 203//203
f 221//221 229//229 203//203
f 204//204 196//196 228//228
f 204//204 228//228 230//230
f 204//204 230//230 222//222
f 221//221 207//207 223//223
f 210//210 222//222 218//218
f 231//231 232//232 211//211
f 231//231 211//211 212//212
f 231//231 212//212 213//213
f 231//231 213//213 233//233
f 216//216 234//234 213//213
f 214//214 224//224 235//235
f 214//214 235//235 215//215
f 226//226 215//215 235//235
f 229//229 236//236 220//220
f 220//220 236//236 227//227
f 227//227 237//237 228//228
f 211//211 232//232 223//223
f 238//238 232//232 231//231
f 218//218 222//222 239//239
f 218//218 239//239 224//224
f 213//213 234//234 233//233
f 219//219 225//225 240//240
f 216//216 219//219 241//241
f 236//236 242//242 227//227
f 229//229 243//243 236//236
f 230//230 244//244 222//222
f 223//223 245//245 221//221
f 246//246 238//238 231//231
f 239//239 247//247 224//224
f 231//231 233//233 246//246
f 225//225 226//226 248//248
f 249//249 225//225 248//248
f 216//216 241//241 234//234
f 240//240 225//225 250//250
f 225//225 249//249 250//250
f 243//243 251//251 236//236
f 237//237 227//227 242//242
f 252//252 237//237 253//253
f 237//237 252//252 228//228
f 228//228 252//252 230//230
f 229//229 221//221 245//245
f 232//232 254//254 223//223
f 223//223 254//254 245//245
f 222//222 244//244 239//239
f 238//238 246//246 255//255
f 256//256 246//246 233//233
f 224//224 247//247 235//235
f 257//257 256//256 233//233
f 241//241 257//257 233//233
f 233//233 234//234 241//241
f 258//258 248//248 226//226
f 226//226 235//235 258//258
f 236//236 251//251 242//242
f 242//242 253//253 237//237
f 259//259 243//243 229//229
f 229//229 245//245 259//259
f 252//252 260//260 230//230
f 244//244 230//230 260//260
f 232//232 261//261 254//254
f 238//238 261//261 232//232
f 258//258 235//235 247//247
f 262//262 257//257 241//241
f 240//240 262//262 241//241
f 241//241 219//219 240//240
f 251//251 263//263 242//242
f 264//264 259//259 245//245
f 264//264 245//245 254//254
f 238//238 265//265 261//261
f 238//238 255//255 265//265
f 266//266 256//256 257//257
f 257//257 262//262 266//266
f 242//242 263//263 253//253
f 243//243 267//267 251//251
f 259//259 267//267 243//243
f 264//264 254//254 268//268
f 239//239 269//269 247//247
f 270//270 248//248 258//258
f 248//248 270//270 249//249
f 262//262 240//240 271//271
f 253//253 260//260 252//252
f 264//264 268//268 259//259
f 268//268 254//254 261//261
f 244//244 272//272 239//239
f 239//239 273//273 269//269
f 246//246 256//256 274//274
f 247//247 269//269 258//258
f 256//256 275//275 274//274
f 256//256 266//266 275//275
f 266//266 262//262 276//276
f 262//262 271//271 276//276
f 240//240 250//250 277//277
f 278//278 250//250 249//249
f 251//251 267//267 279//279
f 263//263 280//280 253//253
f 244//244 260//260 272//272
f 281//281 255//255 246//246
f 270//270 278//278 249//249
f 275//275 266//266 276//276
f 271//271 240//240 277//277
f 282//282 263//263 251//251
f 267//267 259//259 268//268
f 267//267 268//268 283//283
f 253//253 280//280 260//260
f 265//265 284//284 261//261
f 268//268 261//261 284//284
f 273//273 239//239 272//272
f 246//246 274//274 281//281
f 270//270 258//258 285//285
f 278//278 277//277 250//250
f 282//282 251//251 279//279
f 267//267 283//283 279//279
f 268//268 284//284 286//286
f 281//281 265//265 255//255
f 258//258 269//269 285//285
f 276//276 271//271 287//287
f 279//279 288//288 282//282
f 280//280 263//263 282//282
f 283//283 268//268 289//289
f 280//280 290//290 260//260
f 260//260 290//290 272//272
f 272//272 290//290 273//273
f 281//281 291//291 265//265
f 269//269 273//273 285//285
f 275//275 292//292 293//293
f 270//270 285//285 278//278
f 275//275 276//276 294//294
f 275//275 294//294 292//292
f 295//295 282//282 288//288
f 296//296 279//279 283//283
f 268//268 286//286 289//289
f 280//280 297//297 298//298
f 280//280 298//298 290//290
f 284//284 265//265 291//291
f 281//281 274//274 293//293
f 285//285 273//273 299//299
f 293//293 274//274 275//275
f 287//287 300//300 276//276
f 271//271 277//277 287//287
f 277//277 278//278 301//301
f 288//288 279//279 296//296
f 297//297 282//282 295//295
f 283//283 289//289 296//296
f 282//282 297//297 280//280
f 273//273 290//290 302//302
f 292//292 294//294 303//303
f 300//300 294//294 276//276
f 287//287 277//277 304//304
f 289//289 286//286 305//305
f 298//298 306//306 290//290
f 306//306 302//302 290//290
f 302//302 299//299 273//273
f 278//278 285//285 301//301
f 292//292 303//303 307//307
f 304//304 277//277 308//308
f 277//277 301//301 308//308
f 294//294 300//300 303//303
f 289//289 305//305 296//296
f 295//295 309//309 297//297
f 305//305 286//286 310//310
f 284//284 311//311 286//286
f 310//310 286//286 311//311
f 284//284 291//291 312//312
f 299//299 313//313 285//285
f 285//285 313//313 301//301
f 287//287 304//304 300//300
f 288//288 314//314 295//295
f 288//288 296//296 314//314
f 309//309 315//315 297//297
f 316//316 297//297 315//315
f 316//316 298//298 297//297
f 306//306 298//298 316//316
f 312//312 311//311 284//284
f 317//317 302//302 306//306
f 302//302 317//317 299//299
f 299//299 317//317 313//313
f 281//281 293//293 318//318
f 293//293 292//292 318//318
f 292//292 307//307 318//318
f 308//308 301//301 313//313
f 309//309 295//295 314//314
f 296//296 305//305 319//319
f 296//296 319//319 314//314
f 291//291 281//281 312//312
f 306//306 320//320 317//317
f 281//281 318//318 312//312
f 300//300 304//304 321//321
f 304//304 308//308 321//321
f 307//307 303//303 322//322
f 319//319 323//323 314//314
f 314//314 323//323 309//309
f 305//305 324//324 319//319
f 305//305 311//311 325//325
f 305//305 310//310 311//311
f 317//317 326//326 313//313
f 327//327 308//308 326//326
f 313//313 326//326 308//308
f 328//328 318//318 307//307
f 307//307 322//322 328//328
f 322//322 303//303 329//329
f 303//303 300//300 329//329
f 321//321 329//329 300//300
f 324//324 330//330 319//319
f 323//323 315//315 309//309
f 305//305 325//325 324//324
f 315//315 331//331 316//316
f 316//316 331//331 332//332
f 316//316 332//332 306//306
f 332//332 320//320 306//306
f 326//326 317//317 320//320
f 327//327 326//326 333//333
f 334//334 308//308 327//327
f 334//334 321//321 308//308
f 319//319 330//330 323//323
f 311//311 335//335 325//325
f 312//312 335//335 311//311
f 312//312 318//318 336//336
f 326//326 320//320 333//333
f 337//337 321//321 334//334
f 337//337 329//329 321//321
f 338//338 324//324 325//325
f 323//323 331//331 315//315
f 336//336 335//335 312//312
f 320//320 339//339 333//333
f 340//340 334//334 327//327
f 327//327 333//333 340//340
f 341//341 322//322 329//329
f 329//329 337//337 341//341
f 324//324 338//338 330//330
f 325//325 342//342 338//338
f 330//330 343//343 323//323
f 331//331 344//344 332//332
f 325//325 335//335 342//342
f 342//342 335//335 345//345
f 344//344 346//346 332//332
f 346//346 320//320 332//332
f 346//346 339//339 320//320
f 318//318 328//328 336//336
f 339//339 340//340 333//333
f 322//322 341//341 328//328
f 343//343 330//330 338//338
f 342//342 345//345 338//338
f 347//347 323//323 343//343
f 348//348 323//323 347//347
f 323//323 348//348 331//331
f 331//331 348//348 344//344
f 335//335 336//336 345//345
f 346//346 349//349 350//350
f 346//346 350//350 339//339
f 339//339 350//350 340//340
f 334//334 351//351 337//337
f 334//334 340//340 351//351
f 344//344 348//348 349//349
f 338//338 345//345 352//352
f 344//344 349//349 346//346
f 336//336 328//328 353//353
f 341//341 353//353 328//328
f 351//351 354//354 337//337
f 341//341 337//337 354//354
f 343//343 338//338 352//352
f 352//352 347//347 343//343
f 345//345 336//336 355//355
f 355//355 336//336 353//353
f 354//354 351//351 356//356
f 351//351 340//340 356//356
f 340//340 350//350 356//356
f 353//353 341//341 354//354
f 348//348 357//357 349//349
f 345//345 355//355 352//352
f 357//357 350//350 349//349
f 356//356 350//350 357//357
f 352//352 358//358 347//347
f 347//347 358//358 348//348
f 357//357 348//348 358//358
f 352//352 359//359 358//358
f 355//355 359//359 352//352
f 360//360 357//357 358//358
f 355//355 353//353 359//359
f 359//359 353//353 360//360
f 360//360 356//356 357//357
f 353//353 354//354 360//360
f 354//354 356//356 360//360
f 360//360 358//358 359//359
# 712 faces, 0 coords texture

# End of File
