newmtl Brain
illum 4
Kd 0.00 0.00 0.00
Ka 0.00 0.00 0.00
Tf 1.00 1.00 1.00
map_Kd Brainmap_raw.jpg
bump Brainmap_raw.jpg -bm 0
Ni 1.00
Ks 0.20 0.20 0.20
Ns 64.00
newmtl lambert2SG
illum 4
Kd 0.00 0.00 0.00
Ka 0.00 0.00 0.00
Tf 1.00 1.00 1.00
Ni 1.00
Ks 0.50 0.50 0.50
Ns 18.00
